{"Sites": 
	[
		{
			"Name": "Livingstone Life",
			"Description": "The Site for Livingstone's subsidiary",
		},
		{
			"Name": "Playa Azul Hotel",
			"Description": "The Site for Livingstone's Playa Azul Hotel",
		},
		{
			"Name": "Livingstone Resort at Bali",
			"Description": "The Site for Livingstone's Bali location",
		},
		{
			"Name": "Livingstone Resort at Barcelona",
			"Description": "The Site for Livingstone's Bali location",
		},
		{
			"Name": "Livingstone Resort at Tokyo",
			"Description": "The Site for Livingstone's Bali location",
		},
		{
			"Name": "Livingstone Resort at Orlando",
			"Description": "The Site for Livingstone's Bali location",
		},
		{
			"Name": "Hotel Americana",
			"Description": "The Site for Livingstone's Chicago Hotel",
		},
		{
			"Name": "Livingstone Resort at Prague",
			"Description": "The Site for Livingstone's Prague location",
		},
		{
			"Name": "Livingstone Resort at Milan",
			"Description": "The Site for Livingstone's Milan location",
		}
	]
}